{
  "asset": {
    "version": "0.0",
    "tilesetVersion": "61018964589"
  },
  "geometricError": 195.3125,
  "root": {
    "boundingVolume": {
      "region": [
        0.164231818,
        0.856153027,
        0.166245167,
        0.857591134,
        0.0,
        29.3
      ]
    },
    "geometricError": 97.65625,
    "refine": "REPLACE",
    "children": [
      {
        "boundingVolume": {
          "region": [
            0.164231818,
            0.856153027,
            0.164519439,
            0.856344774,
            0.0,
            7.0
          ]
        },
        "geometricError": 24.4140625,
        "refine": "ADD",
        "children": [
          {
            "boundingVolume": {
              "region": [
                0.164423565,
                0.856248901,
                0.164519439,
                0.856344774,
                0.0,
                7.0
              ]
            },
            "geometricError": 0.0,
            "refine": "REPLACE",
            "content": {
              "boundingVolume": {
                "region": [
                  0.164451318,
                  0.856258677,
                  0.164453279,
                  0.856260073,
                  0.0,
                  7.0
                ]
              },
              "url": "15/34483/7452.b3dm"
            }
          }
        ]
      },
      {
        "boundingVolume": {
          "region": [
            0.164231818,
            0.856344774,
            0.164520143,
            0.85672827,
            0.0,
            13.3
          ]
        },
        "geometricError": 24.4140625,
        "refine": "ADD",
        "children": [
          {
            "boundingVolume": {
              "region": [
                0.164231818,
                0.856344774,
                0.164327691,
                0.856440648,
                0.0,
                11.6
              ]
            },
            "geometricError": 0.0,
            "refine": "REPLACE",
            "content": {
              "boundingVolume": {
                "region": [
                  0.164248604,
                  0.856424803,
                  0.164264028,
                  0.856439212,
                  0.0,
                  11.6
                ]
              },
              "url": "15/34481/7451.b3dm"
            }
          },
          {
            "boundingVolume": {
              "region": [
                0.164231818,
                0.856440648,
                0.164327691,
                0.856536522,
                0.0,
                10.4
              ]
            },
            "geometricError": 0.0,
            "refine": "REPLACE",
            "content": {
              "boundingVolume": {
                "region": [
                  0.164257431,
                  0.856441395,
                  0.164308636,
                  0.856477837,
                  0.0,
                  10.4
                ]
              },
              "url": "15/34481/7450.b3dm"
            }
          },
          {
            "boundingVolume": {
              "region": [
                0.164327691,
                0.856536522,
                0.164423565,
                0.856632396,
                0.0,
                11.4
              ]
            },
            "geometricError": 0.0,
            "refine": "REPLACE",
            "content": {
              "boundingVolume": {
                "region": [
                  0.164363515,
                  0.85654113,
                  0.164384957,
                  0.856592488,
                  0.0,
                  11.4
                ]
              },
              "url": "15/34482/7449.b3dm"
            }
          },
          {
            "boundingVolume": {
              "region": [
                0.164423565,
                0.856344774,
                0.164519439,
                0.856440648,
                0.0,
                4.7
              ]
            },
            "geometricError": 0.0,
            "refine": "REPLACE",
            "content": {
              "boundingVolume": {
                "region": [
                  0.164490816,
                  0.856394864,
                  0.164500965,
                  0.856403728,
                  0.0,
                  4.7
                ]
              },
              "url": "15/34483/7451.b3dm"
            }
          },
          {
            "boundingVolume": {
              "region": [
                0.164423565,
                0.856440648,
                0.164519439,
                0.856536522,
                0.0,
                13.3
              ]
            },
            "geometricError": 0.0,
            "refine": "REPLACE",
            "content": {
              "boundingVolume": {
                "region": [
                  0.164480047,
                  0.85644828,
                  0.164500351,
                  0.856462018,
                  0.0,
                  13.3
                ]
              },
              "url": "15/34483/7450.b3dm"
            }
          },
          {
            "boundingVolume": {
              "region": [
                0.164423565,
                0.856536522,
                0.164519592,
                0.856632396,
                0.0,
                9.3
              ]
            },
            "geometricError": 0.0,
            "refine": "REPLACE",
            "content": {
              "boundingVolume": {
                "region": [
                  0.164512139,
                  0.856598693,
                  0.164519592,
                  0.856616697,
                  0.0,
                  9.3
                ]
              },
              "url": "15/34483/7449.b3dm"
            }
          },
          {
            "boundingVolume": {
              "region": [
                0.164423565,
                0.856632396,
                0.164520143,
                0.85672827,
                0.0,
                5.5
              ]
            },
            "geometricError": 0.0,
            "refine": "REPLACE",
            "content": {
              "boundingVolume": {
                "region": [
                  0.164511328,
                  0.856691362,
                  0.164520143,
                  0.856695318,
                  0.0,
                  5.5
                ]
              },
              "url": "15/34483/7448.b3dm"
            }
          }
        ]
      },
      {
        "boundingVolume": {
          "region": [
            0.164519439,
            0.856153027,
            0.164902934,
            0.856344774,
            0.0,
            9.8
          ]
        },
        "geometricError": 24.4140625,
        "refine": "ADD",
        "children": [
          {
            "boundingVolume": {
              "region": [
                0.164519439,
                0.856153027,
                0.164615313,
                0.856248901,
                0.0,
                9.8
              ]
            },
            "geometricError": 0.0,
            "refine": "REPLACE",
            "content": {
              "boundingVolume": {
                "region": [
                  0.164611369,
                  0.856223011,
                  0.164615158,
                  0.856226024,
                  0.0,
                  9.8
                ]
              },
              "url": "15/34484/7453.b3dm"
            }
          },
          {
            "boundingVolume": {
              "region": [
                0.164615313,
                0.856153027,
                0.164711187,
                0.856248901,
                0.0,
                9.5
              ]
            },
            "geometricError": 0.0,
            "refine": "REPLACE",
            "content": {
              "boundingVolume": {
                "region": [
                  0.164658617,
                  0.856185981,
                  0.164682658,
                  0.856226536,
                  0.0,
                  9.5
                ]
              },
              "url": "15/34485/7453.b3dm"
            }
          }
        ]
      },
      {
        "boundingVolume": {
          "region": [
            0.164519439,
            0.856344774,
            0.164902934,
            0.856728969,
            0.0,
            15.0
          ]
        },
        "geometricError": 24.4140625,
        "refine": "ADD",
        "children": [
          {
            "boundingVolume": {
              "region": [
                0.164519439,
                0.856536522,
                0.164615313,
                0.856632396,
                0.0,
                11.6
              ]
            },
            "geometricError": 0.0,
            "refine": "REPLACE",
            "content": {
              "boundingVolume": {
                "region": [
                  0.164520107,
                  0.856604684,
                  0.164606775,
                  0.856630524,
                  0.0,
                  11.6
                ]
              },
              "url": "15/34484/7449.b3dm"
            }
          },
          {
            "boundingVolume": {
              "region": [
                0.164519439,
                0.856632001,
                0.164615313,
                0.85672827,
                0.0,
                14.9
              ]
            },
            "geometricError": 0.0,
            "refine": "REPLACE",
            "content": {
              "boundingVolume": {
                "region": [
                  0.164521425,
                  0.856632001,
                  0.164601113,
                  0.856658204,
                  0.0,
                  14.9
                ]
              },
              "url": "15/34484/7448.b3dm"
            }
          },
          {
            "boundingVolume": {
              "region": [
                0.164615313,
                0.856536522,
                0.164711187,
                0.856633379,
                0.0,
                12.0
              ]
            },
            "geometricError": 0.0,
            "refine": "REPLACE",
            "content": {
              "boundingVolume": {
                "region": [
                  0.164615386,
                  0.856592911,
                  0.164710458,
                  0.856633379,
                  0.0,
                  12.0
                ]
              },
              "url": "15/34485/7449.b3dm"
            }
          },
          {
            "boundingVolume": {
              "region": [
                0.164615313,
                0.856632396,
                0.164713013,
                0.85672827,
                0.0,
                15.0
              ]
            },
            "geometricError": 0.0,
            "refine": "REPLACE",
            "content": {
              "boundingVolume": {
                "region": [
                  0.164638427,
                  0.856632435,
                  0.164713013,
                  0.856720103,
                  0.0,
                  15.0
                ]
              },
              "url": "15/34485/7448.b3dm"
            }
          },
          {
            "boundingVolume": {
              "region": [
                0.164708973,
                0.856632396,
                0.16480706,
                0.856728969,
                0.0,
                11.6
              ]
            },
            "geometricError": 0.0,
            "refine": "REPLACE",
            "content": {
              "boundingVolume": {
                "region": [
                  0.164708973,
                  0.856636913,
                  0.164805598,
                  0.856728969,
                  0.0,
                  11.6
                ]
              },
              "url": "15/34486/7448.b3dm"
            }
          },
          {
            "boundingVolume": {
              "region": [
                0.16480706,
                0.856632396,
                0.164902934,
                0.85672827,
                0.0,
                9.0
              ]
            },
            "geometricError": 0.0,
            "refine": "REPLACE",
            "content": {
              "boundingVolume": {
                "region": [
                  0.164808058,
                  0.8566661,
                  0.164864394,
                  0.856722741,
                  0.0,
                  9.0
                ]
              },
              "url": "15/34487/7448.b3dm"
            }
          }
        ]
      },
      {
        "boundingVolume": {
          "region": [
            0.164519439,
            0.856727028,
            0.164904871,
            0.857111765,
            0.0,
            16.5
          ]
        },
        "geometricError": 24.4140625,
        "refine": "ADD",
        "children": [
          {
            "boundingVolume": {
              "region": [
                0.164615313,
                0.856727028,
                0.164711187,
                0.856824143,
                0.0,
                16.5
              ]
            },
            "geometricError": 0.0,
            "refine": "REPLACE",
            "content": {
              "boundingVolume": {
                "region": [
                  0.164643947,
                  0.856727028,
                  0.164706544,
                  0.856735176,
                  0.0,
                  16.5
                ]
              },
              "url": "15/34485/7447.b3dm"
            }
          },
          {
            "boundingVolume": {
              "region": [
                0.164711187,
                0.85672827,
                0.16480706,
                0.856824143,
                0.0,
                9.9
              ]
            },
            "geometricError": 0.0,
            "refine": "REPLACE",
            "content": {
              "boundingVolume": {
                "region": [
                  0.164785922,
                  0.856729774,
                  0.164804723,
                  0.856739948,
                  0.0,
                  9.9
                ]
              },
              "url": "15/34486/7447.b3dm"
            }
          },
          {
            "boundingVolume": {
              "region": [
                0.164805737,
                0.856728097,
                0.164902934,
                0.856824143,
                0.0,
                9.8
              ]
            },
            "geometricError": 0.0,
            "refine": "REPLACE",
            "content": {
              "boundingVolume": {
                "region": [
                  0.164805737,
                  0.856728097,
                  0.164812179,
                  0.856740189,
                  0.0,
                  9.8
                ]
              },
              "url": "15/34487/7447.b3dm"
            }
          },
          {
            "boundingVolume": {
              "region": [
                0.16480706,
                0.856824143,
                0.164904871,
                0.856920017,
                0.0,
                12.2
              ]
            },
            "geometricError": 0.0,
            "refine": "REPLACE",
            "content": {
              "boundingVolume": {
                "region": [
                  0.164820764,
                  0.85688058,
                  0.164904871,
                  0.856906384,
                  0.0,
                  12.2
                ]
              },
              "url": "15/34487/7446.b3dm"
            }
          },
          {
            "boundingVolume": {
              "region": [
                0.16480706,
                0.856920017,
                0.164902934,
                0.857015891,
                0.0,
                8.7
              ]
            },
            "geometricError": 0.0,
            "refine": "REPLACE",
            "content": {
              "boundingVolume": {
                "region": [
                  0.164859163,
                  0.856925221,
                  0.164885534,
                  0.856941077,
                  0.0,
                  8.7
                ]
              },
              "url": "15/34487/7445.b3dm"
            }
          }
        ]
      },
      {
        "boundingVolume": {
          "region": [
            0.164902934,
            0.856344774,
            0.165286429,
            0.856728964,
            0.0,
            28.9
          ]
        },
        "geometricError": 24.4140625,
        "refine": "ADD",
        "children": [
          {
            "boundingVolume": {
              "region": [
                0.164902934,
                0.856536522,
                0.164998808,
                0.856632396,
                0.0,
                13.1
              ]
            },
            "geometricError": 0.0,
            "refine": "REPLACE",
            "content": {
              "boundingVolume": {
                "region": [
                  0.164966427,
                  0.856553799,
                  0.164998486,
                  0.856620044,
                  0.0,
                  13.1
                ]
              },
              "url": "15/34488/7449.b3dm"
            }
          },
          {
            "boundingVolume": {
              "region": [
                0.164991455,
                0.856536522,
                0.165097639,
                0.856634118,
                0.0,
                27.5
              ]
            },
            "geometricError": 0.0,
            "refine": "REPLACE",
            "content": {
              "boundingVolume": {
                "region": [
                  0.164991455,
                  0.856545206,
                  0.165097639,
                  0.856634118,
                  0.0,
                  27.5
                ]
              },
              "url": "15/34489/7449.b3dm"
            }
          },
          {
            "boundingVolume": {
              "region": [
                0.164998808,
                0.85663162,
                0.165097205,
                0.856728964,
                0.0,
                10.9
              ]
            },
            "geometricError": 0.0,
            "refine": "REPLACE",
            "content": {
              "boundingVolume": {
                "region": [
                  0.165008199,
                  0.85663162,
                  0.165097205,
                  0.856728964,
                  0.0,
                  10.9
                ]
              },
              "url": "15/34489/7448.b3dm"
            }
          },
          {
            "boundingVolume": {
              "region": [
                0.165093038,
                0.856536522,
                0.165192216,
                0.856633612,
                0.0,
                28.9
              ]
            },
            "geometricError": 0.0,
            "refine": "REPLACE",
            "content": {
              "boundingVolume": {
                "region": [
                  0.165093038,
                  0.856563026,
                  0.165192216,
                  0.856633612,
                  0.0,
                  28.9
                ]
              },
              "url": "15/34490/7449.b3dm"
            }
          },
          {
            "boundingVolume": {
              "region": [
                0.165093161,
                0.856631557,
                0.16519325,
                0.856728456,
                0.0,
                16.2
              ]
            },
            "geometricError": 0.0,
            "refine": "REPLACE",
            "content": {
              "url": "15/34490/7448.b3dm"
            }
          },
          {
            "boundingVolume": {
              "region": [
                0.16518832,
                0.856536522,
                0.165286429,
                0.856634083,
                0.0,
                11.1
              ]
            },
            "geometricError": 0.0,
            "refine": "REPLACE",
            "content": {
              "boundingVolume": {
                "region": [
                  0.16518832,
                  0.856578775,
                  0.165272706,
                  0.856634083,
                  0.0,
                  11.1
                ]
              },
              "url": "15/34491/7449.b3dm"
            }
          },
          {
            "boundingVolume": {
              "region": [
                0.165189038,
                0.856631671,
                0.165286429,
                0.85672827,
                0.0,
                11.4
              ]
            },
            "geometricError": 0.0,
            "refine": "REPLACE",
            "content": {
              "boundingVolume": {
                "region": [
                  0.165189038,
                  0.856631671,
                  0.165282122,
                  0.856724975,
                  0.0,
                  11.4
                ]
              },
              "url": "15/34491/7448.b3dm"
            }
          }
        ]
      },
      {
        "boundingVolume": {
          "region": [
            0.164902934,
            0.856727247,
            0.16528698,
            0.857111765,
            0.0,
            21.0
          ]
        },
        "geometricError": 24.4140625,
        "refine": "ADD",
        "children": [
          {
            "boundingVolume": {
              "region": [
                0.164902934,
                0.85672827,
                0.164998808,
                0.856824143,
                0.0,
                5.5
              ]
            },
            "geometricError": 0.0,
            "refine": "REPLACE",
            "content": {
              "boundingVolume": {
                "region": [
                  0.164948274,
                  0.85674144,
                  0.164950653,
                  0.856742337,
                  0.0,
                  5.5
                ]
              },
              "url": "15/34488/7447.b3dm"
            }
          },
          {
            "boundingVolume": {
              "region": [
                0.164902934,
                0.856824143,
                0.164998808,
                0.856920017,
                0.0,
                21.0
              ]
            },
            "geometricError": 0.0,
            "refine": "REPLACE",
            "content": {
              "boundingVolume": {
                "region": [
                  0.164910188,
                  0.85683665,
                  0.164996685,
                  0.856903535,
                  0.0,
                  21.0
                ]
              },
              "url": "15/34488/7446.b3dm"
            }
          },
          {
            "boundingVolume": {
              "region": [
                0.164998808,
                0.856727747,
                0.165095941,
                0.856824143,
                0.0,
                15.7
              ]
            },
            "geometricError": 0.0,
            "refine": "REPLACE",
            "content": {
              "boundingVolume": {
                "region": [
                  0.165005763,
                  0.856727747,
                  0.165095941,
                  0.856821592,
                  0.0,
                  15.7
                ]
              },
              "url": "15/34489/7447.b3dm"
            }
          },
          {
            "boundingVolume": {
              "region": [
                0.164998808,
                0.856824143,
                0.165094682,
                0.856920017,
                0.0,
                10.7
              ]
            },
            "geometricError": 0.0,
            "refine": "REPLACE",
            "content": {
              "boundingVolume": {
                "region": [
                  0.165010107,
                  0.856829734,
                  0.165076395,
                  0.856903484,
                  0.0,
                  10.7
                ]
              },
              "url": "15/34489/7446.b3dm"
            }
          },
          {
            "boundingVolume": {
              "region": [
                0.165093845,
                0.856727247,
                0.165190556,
                0.856824143,
                0.0,
                15.0
              ]
            },
            "geometricError": 0.0,
            "refine": "REPLACE",
            "content": {
              "boundingVolume": {
                "region": [
                  0.165093845,
                  0.856727247,
                  0.165154063,
                  0.856748275,
                  0.0,
                  15.0
                ]
              },
              "url": "15/34490/7447.b3dm"
            }
          },
          {
            "boundingVolume": {
              "region": [
                0.165094682,
                0.856824143,
                0.165190556,
                0.856920017,
                0.0,
                12.8
              ]
            },
            "geometricError": 0.0,
            "refine": "REPLACE",
            "content": {
              "boundingVolume": {
                "region": [
                  0.165112281,
                  0.856839088,
                  0.165169046,
                  0.856900449,
                  0.0,
                  12.8
                ]
              },
              "url": "15/34490/7446.b3dm"
            }
          },
          {
            "boundingVolume": {
              "region": [
                0.165190556,
                0.856824143,
                0.165286429,
                0.856920256,
                0.0,
                11.1
              ]
            },
            "geometricError": 0.0,
            "refine": "REPLACE",
            "content": {
              "boundingVolume": {
                "region": [
                  0.165210483,
                  0.85689936,
                  0.165263869,
                  0.856920256,
                  0.0,
                  11.1
                ]
              },
              "url": "15/34491/7446.b3dm"
            }
          },
          {
            "boundingVolume": {
              "region": [
                0.165190556,
                0.856920017,
                0.16528698,
                0.857015891,
                0.0,
                10.7
              ]
            },
            "geometricError": 0.0,
            "refine": "REPLACE",
            "content": {
              "boundingVolume": {
                "region": [
                  0.165246928,
                  0.856921182,
                  0.16528698,
                  0.85696652,
                  0.0,
                  10.7
                ]
              },
              "url": "15/34491/7445.b3dm"
            }
          }
        ]
      },
      {
        "boundingVolume": {
          "region": [
            0.165285128,
            0.856344774,
            0.165669925,
            0.85672885,
            0.0,
            10.1
          ]
        },
        "geometricError": 24.4140625,
        "refine": "ADD",
        "children": [
          {
            "boundingVolume": {
              "region": [
                0.165286429,
                0.856536522,
                0.165382303,
                0.856632396,
                0.0,
                4.9
              ]
            },
            "geometricError": 0.0,
            "refine": "REPLACE",
            "content": {
              "boundingVolume": {
                "region": [
                  0.165359518,
                  0.856624826,
                  0.165360824,
                  0.856625665,
                  0.0,
                  4.9
                ]
              },
              "url": "15/34492/7449.b3dm"
            }
          },
          {
            "boundingVolume": {
              "region": [
                0.165285128,
                0.856632396,
                0.165382303,
                0.856728751,
                0.0,
                10.0
              ]
            },
            "geometricError": 0.0,
            "refine": "REPLACE",
            "content": {
              "boundingVolume": {
                "region": [
                  0.165285128,
                  0.85664467,
                  0.165349931,
                  0.856728751,
                  0.0,
                  10.0
                ]
              },
              "url": "15/34492/7448.b3dm"
            }
          },
          {
            "boundingVolume": {
              "region": [
                0.165382303,
                0.856536522,
                0.165478177,
                0.856632396,
                0.0,
                4.4
              ]
            },
            "geometricError": 0.0,
            "refine": "REPLACE",
            "content": {
              "boundingVolume": {
                "region": [
                  0.165406456,
                  0.856606744,
                  0.165407556,
                  0.856607742,
                  0.0,
                  4.4
                ]
              },
              "url": "15/34493/7449.b3dm"
            }
          },
          {
            "boundingVolume": {
              "region": [
                0.165382303,
                0.856632396,
                0.165478177,
                0.85672827,
                0.0,
                4.3
              ]
            },
            "geometricError": 0.0,
            "refine": "REPLACE",
            "content": {
              "boundingVolume": {
                "region": [
                  0.165400554,
                  0.856641896,
                  0.165438967,
                  0.85670145,
                  0.0,
                  4.3
                ]
              },
              "url": "15/34493/7448.b3dm"
            }
          },
          {
            "boundingVolume": {
              "region": [
                0.165478177,
                0.856632396,
                0.165574051,
                0.85672827,
                0.0,
                4.6
              ]
            },
            "geometricError": 0.0,
            "refine": "REPLACE",
            "content": {
              "boundingVolume": {
                "region": [
                  0.165529609,
                  0.856693327,
                  0.16553775,
                  0.856697576,
                  0.0,
                  4.6
                ]
              },
              "url": "15/34494/7448.b3dm"
            }
          },
          {
            "boundingVolume": {
              "region": [
                0.165574051,
                0.856632396,
                0.165669925,
                0.85672885,
                0.0,
                10.1
              ]
            },
            "geometricError": 0.0,
            "refine": "REPLACE",
            "content": {
              "boundingVolume": {
                "region": [
                  0.165614826,
                  0.856691545,
                  0.165669846,
                  0.85672885,
                  0.0,
                  10.1
                ]
              },
              "url": "15/34495/7448.b3dm"
            }
          }
        ]
      },
      {
        "boundingVolume": {
          "region": [
            0.165284964,
            0.856724142,
            0.165671186,
            0.857113016,
            0.0,
            29.3
          ]
        },
        "geometricError": 24.4140625,
        "refine": "ADD",
        "children": [
          {
            "boundingVolume": {
              "region": [
                0.165286429,
                0.856727131,
                0.165382303,
                0.856824143,
                0.0,
                10.4
              ]
            },
            "geometricError": 0.0,
            "refine": "REPLACE",
            "content": {
              "boundingVolume": {
                "region": [
                  0.165298658,
                  0.856727131,
                  0.165327434,
                  0.856752903,
                  0.0,
                  10.4
                ]
              },
              "url": "15/34492/7447.b3dm"
            }
          },
          {
            "boundingVolume": {
              "region": [
                0.165286429,
                0.856824143,
                0.165383754,
                0.856920017,
                0.0,
                11.4
              ]
            },
            "geometricError": 0.0,
            "refine": "REPLACE",
            "content": {
              "boundingVolume": {
                "region": [
                  0.165352717,
                  0.856836191,
                  0.165383754,
                  0.856900603,
                  0.0,
                  11.4
                ]
              },
              "url": "15/34492/7446.b3dm"
            }
          },
          {
            "boundingVolume": {
              "region": [
                0.165284964,
                0.856920017,
                0.165382303,
                0.857015891,
                0.0,
                10.2
              ]
            },
            "geometricError": 0.0,
            "refine": "REPLACE",
            "content": {
              "boundingVolume": {
                "region": [
                  0.165284964,
                  0.85695511,
                  0.165305938,
                  0.856971962,
                  0.0,
                  10.2
                ]
              },
              "url": "15/34492/7445.b3dm"
            }
          },
          {
            "boundingVolume": {
              "region": [
                0.165382303,
                0.85672827,
                0.165478177,
                0.856824562,
                0.0,
                13.2
              ]
            },
            "geometricError": 0.0,
            "refine": "REPLACE",
            "content": {
              "boundingVolume": {
                "region": [
                  0.165389156,
                  0.856812241,
                  0.165426959,
                  0.856824562,
                  0.0,
                  13.2
                ]
              },
              "url": "15/34493/7447.b3dm"
            }
          },
          {
            "boundingVolume": {
              "region": [
                0.165381316,
                0.856821297,
                0.165491556,
                0.856920017,
                0.0,
                18.1
              ]
            },
            "geometricError": 0.0,
            "refine": "REPLACE",
            "content": {
              "boundingVolume": {
                "region": [
                  0.165381316,
                  0.856821297,
                  0.165491556,
                  0.856891895,
                  0.0,
                  18.1
                ]
              },
              "url": "15/34493/7446.b3dm"
            }
          },
          {
            "boundingVolume": {
              "region": [
                0.165382303,
                0.856920017,
                0.165479718,
                0.857015891,
                0.0,
                11.9
              ]
            },
            "geometricError": 0.0,
            "refine": "REPLACE",
            "content": {
              "boundingVolume": {
                "region": [
                  0.165392312,
                  0.856940255,
                  0.165479718,
                  0.856998266,
                  0.0,
                  11.9
                ]
              },
              "url": "15/34493/7445.b3dm"
            }
          },
          {
            "boundingVolume": {
              "region": [
                0.165382303,
                0.857015891,
                0.165479605,
                0.857111765,
                0.0,
                29.3
              ]
            },
            "geometricError": 0.0,
            "refine": "REPLACE",
            "content": {
              "boundingVolume": {
                "region": [
                  0.165404536,
                  0.857042221,
                  0.165479605,
                  0.85710699,
                  0.0,
                  29.3
                ]
              },
              "url": "15/34493/7444.b3dm"
            }
          },
          {
            "boundingVolume": {
              "region": [
                0.165476011,
                0.856824143,
                0.165574051,
                0.856920017,
                0.0,
                10.5
              ]
            },
            "geometricError": 0.0,
            "refine": "REPLACE",
            "content": {
              "boundingVolume": {
                "region": [
                  0.165476011,
                  0.856839794,
                  0.165534396,
                  0.856867485,
                  0.0,
                  10.5
                ]
              },
              "url": "15/34494/7446.b3dm"
            }
          },
          {
            "boundingVolume": {
              "region": [
                0.165475655,
                0.856920017,
                0.165574476,
                0.857018212,
                0.0,
                15.4
              ]
            },
            "geometricError": 0.0,
            "refine": "REPLACE",
            "content": {
              "boundingVolume": {
                "region": [
                  0.165475655,
                  0.856942763,
                  0.165574476,
                  0.857018212,
                  0.0,
                  15.4
                ]
              },
              "url": "15/34494/7445.b3dm"
            }
          },
          {
            "boundingVolume": {
              "region": [
                0.165474828,
                0.857015891,
                0.16557597,
                0.857113016,
                0.0,
                16.1
              ]
            },
            "geometricError": 0.0,
            "refine": "REPLACE",
            "content": {
              "boundingVolume": {
                "region": [
                  0.165474828,
                  0.857018001,
                  0.16557597,
                  0.857113016,
                  0.0,
                  16.1
                ]
              },
              "url": "15/34494/7444.b3dm"
            }
          },
          {
            "boundingVolume": {
              "region": [
                0.165574051,
                0.856724142,
                0.165670884,
                0.856824143,
                0.0,
                11.5
              ]
            },
            "geometricError": 0.0,
            "refine": "REPLACE",
            "content": {
              "boundingVolume": {
                "region": [
                  0.165601175,
                  0.856724142,
                  0.165670884,
                  0.856816713,
                  0.0,
                  11.5
                ]
              },
              "url": "15/34495/7447.b3dm"
            }
          },
          {
            "boundingVolume": {
              "region": [
                0.165574051,
                0.856920017,
                0.165671186,
                0.857016663,
                0.0,
                14.3
              ]
            },
            "geometricError": 0.0,
            "refine": "REPLACE",
            "content": {
              "boundingVolume": {
                "region": [
                  0.165574515,
                  0.856957566,
                  0.165671186,
                  0.857016663,
                  0.0,
                  14.3
                ]
              },
              "url": "15/34495/7445.b3dm"
            }
          },
          {
            "boundingVolume": {
              "region": [
                0.16557203,
                0.857014653,
                0.165670977,
                0.857112058,
                0.0,
                16.1
              ]
            },
            "geometricError": 0.0,
            "refine": "REPLACE",
            "content": {
              "url": "15/34495/7444.b3dm"
            }
          }
        ]
      },
      {
        "boundingVolume": {
          "region": [
            0.165286429,
            0.857111007,
            0.165673282,
            0.85749526,
            0.0,
            14.5
          ]
        },
        "geometricError": 24.4140625,
        "refine": "ADD",
        "children": [
          {
            "boundingVolume": {
              "region": [
                0.165478177,
                0.857111285,
                0.165574456,
                0.857207639,
                0.0,
                14.5
              ]
            },
            "geometricError": 0.0,
            "refine": "REPLACE",
            "content": {
              "boundingVolume": {
                "region": [
                  0.165494846,
                  0.857111285,
                  0.165574456,
                  0.857142703,
                  0.0,
                  14.5
                ]
              },
              "url": "15/34494/7443.b3dm"
            }
          },
          {
            "boundingVolume": {
              "region": [
                0.165572503,
                0.857111007,
                0.165673282,
                0.857207639,
                0.0,
                13.7
              ]
            },
            "geometricError": 0.0,
            "refine": "REPLACE",
            "content": {
              "boundingVolume": {
                "region": [
                  0.165572503,
                  0.857111007,
                  0.165673282,
                  0.857205994,
                  0.0,
                  13.7
                ]
              },
              "url": "15/34495/7443.b3dm"
            }
          },
          {
            "boundingVolume": {
              "region": [
                0.165574051,
                0.857207639,
                0.165671549,
                0.857303512,
                0.0,
                11.0
              ]
            },
            "geometricError": 0.0,
            "refine": "REPLACE",
            "content": {
              "boundingVolume": {
                "region": [
                  0.165629643,
                  0.857216593,
                  0.165671549,
                  0.857238451,
                  0.0,
                  11.0
                ]
              },
              "url": "15/34495/7442.b3dm"
            }
          },
          {
            "boundingVolume": {
              "region": [
                0.165574051,
                0.857399386,
                0.165671268,
                0.85749526,
                0.0,
                7.9
              ]
            },
            "geometricError": 0.0,
            "refine": "REPLACE",
            "content": {
              "boundingVolume": {
                "region": [
                  0.165654211,
                  0.857422796,
                  0.165671268,
                  0.857451902,
                  0.0,
                  7.9
                ]
              },
              "url": "15/34495/7440.b3dm"
            }
          }
        ]
      },
      {
        "boundingVolume": {
          "region": [
            0.165286429,
            0.85749526,
            0.165669925,
            0.857591134,
            0.0,
            7.9
          ]
        },
        "geometricError": 24.4140625,
        "refine": "ADD",
        "children": [
          {
            "boundingVolume": {
              "region": [
                0.165478177,
                0.85749526,
                0.165574051,
                0.857591134,
                0.0,
                5.6
              ]
            },
            "geometricError": 0.0,
            "refine": "REPLACE",
            "content": {
              "boundingVolume": {
                "region": [
                  0.165514858,
                  0.857575503,
                  0.165518195,
                  0.857577823,
                  0.0,
                  5.6
                ]
              },
              "url": "15/34494/7439.b3dm"
            }
          },
          {
            "boundingVolume": {
              "region": [
                0.165574051,
                0.85749526,
                0.165669925,
                0.857591134,
                0.0,
                7.9
              ]
            },
            "geometricError": 0.0,
            "refine": "REPLACE",
            "content": {
              "boundingVolume": {
                "region": [
                  0.165621517,
                  0.857523222,
                  0.165648884,
                  0.857544368,
                  0.0,
                  7.9
                ]
              },
              "url": "15/34495/7439.b3dm"
            }
          }
        ]
      },
      {
        "boundingVolume": {
          "region": [
            0.165668423,
            0.856344774,
            0.16605342,
            0.856728631,
            0.0,
            14.8
          ]
        },
        "geometricError": 24.4140625,
        "refine": "ADD",
        "children": [
          {
            "boundingVolume": {
              "region": [
                0.165669925,
                0.856440648,
                0.165766457,
                0.856536522,
                0.0,
                11.6
              ]
            },
            "geometricError": 0.0,
            "refine": "REPLACE",
            "content": {
              "boundingVolume": {
                "region": [
                  0.165687217,
                  0.856498481,
                  0.165766457,
                  0.856530866,
                  0.0,
                  11.6
                ]
              },
              "url": "15/34496/7450.b3dm"
            }
          },
          {
            "boundingVolume": {
              "region": [
                0.165669925,
                0.856536522,
                0.165765798,
                0.856632396,
                0.0,
                6.6
              ]
            },
            "geometricError": 0.0,
            "refine": "REPLACE",
            "content": {
              "boundingVolume": {
                "region": [
                  0.165745716,
                  0.856624684,
                  0.165753073,
                  0.856630361,
                  0.0,
                  6.6
                ]
              },
              "url": "15/34496/7449.b3dm"
            }
          },
          {
            "boundingVolume": {
              "region": [
                0.165668423,
                0.856632396,
                0.165765798,
                0.856728631,
                0.0,
                11.7
              ]
            },
            "geometricError": 0.0,
            "refine": "REPLACE",
            "content": {
              "boundingVolume": {
                "region": [
                  0.165668423,
                  0.856653102,
                  0.165765648,
                  0.856728631,
                  0.0,
                  11.7
                ]
              },
              "url": "15/34496/7448.b3dm"
            }
          },
          {
            "boundingVolume": {
              "region": [
                0.165765798,
                0.856344774,
                0.165861672,
                0.856440648,
                0.0,
                9.4
              ]
            },
            "geometricError": 0.0,
            "refine": "REPLACE",
            "content": {
              "boundingVolume": {
                "region": [
                  0.165819856,
                  0.856377397,
                  0.165828029,
                  0.856381882,
                  0.0,
                  9.4
                ]
              },
              "url": "15/34497/7451.b3dm"
            }
          },
          {
            "boundingVolume": {
              "region": [
                0.16576434,
                0.856440648,
                0.165861672,
                0.856536522,
                0.0,
                10.5
              ]
            },
            "geometricError": 0.0,
            "refine": "REPLACE",
            "content": {
              "boundingVolume": {
                "region": [
                  0.16576434,
                  0.856483262,
                  0.165852768,
                  0.85650523,
                  0.0,
                  10.5
                ]
              },
              "url": "15/34497/7450.b3dm"
            }
          },
          {
            "boundingVolume": {
              "region": [
                0.165765798,
                0.856536522,
                0.165861672,
                0.856632396,
                0.0,
                11.2
              ]
            },
            "geometricError": 0.0,
            "refine": "REPLACE",
            "content": {
              "boundingVolume": {
                "region": [
                  0.165780346,
                  0.856547454,
                  0.165816058,
                  0.856558707,
                  0.0,
                  11.2
                ]
              },
              "url": "15/34497/7449.b3dm"
            }
          },
          {
            "boundingVolume": {
              "region": [
                0.165763627,
                0.856632396,
                0.165861672,
                0.85672827,
                0.0,
                14.8
              ]
            },
            "geometricError": 0.0,
            "refine": "REPLACE",
            "content": {
              "boundingVolume": {
                "region": [
                  0.165763627,
                  0.856650895,
                  0.165843032,
                  0.856728262,
                  0.0,
                  14.8
                ]
              },
              "url": "15/34497/7448.b3dm"
            }
          },
          {
            "boundingVolume": {
              "region": [
                0.165861672,
                0.856344774,
                0.165957546,
                0.856441675,
                0.0,
                12.2
              ]
            },
            "geometricError": 0.0,
            "refine": "REPLACE",
            "content": {
              "boundingVolume": {
                "region": [
                  0.165862131,
                  0.856379392,
                  0.165924109,
                  0.856441675,
                  0.0,
                  12.2
                ]
              },
              "url": "15/34498/7451.b3dm"
            }
          },
          {
            "boundingVolume": {
              "region": [
                0.165861672,
                0.85644001,
                0.165957546,
                0.856536522,
                0.0,
                9.7
              ]
            },
            "geometricError": 0.0,
            "refine": "REPLACE",
            "content": {
              "boundingVolume": {
                "region": [
                  0.165876487,
                  0.85644001,
                  0.165929204,
                  0.856511109,
                  0.0,
                  9.7
                ]
              },
              "url": "15/34498/7450.b3dm"
            }
          },
          {
            "boundingVolume": {
              "region": [
                0.165861672,
                0.856632396,
                0.165957546,
                0.85672827,
                0.0,
                11.5
              ]
            },
            "geometricError": 0.0,
            "refine": "REPLACE",
            "content": {
              "boundingVolume": {
                "region": [
                  0.165868716,
                  0.8567168,
                  0.165869951,
                  0.856717682,
                  0.0,
                  11.5
                ]
              },
              "url": "15/34498/7448.b3dm"
            }
          }
        ]
      },
      {
        "boundingVolume": {
          "region": [
            0.165668581,
            0.856727045,
            0.16605342,
            0.857111765,
            0.0,
            14.7
          ]
        },
        "geometricError": 24.4140625,
        "refine": "ADD",
        "children": [
          {
            "boundingVolume": {
              "region": [
                0.165669648,
                0.856727045,
                0.165765798,
                0.856824143,
                0.0,
                14.7
              ]
            },
            "geometricError": 0.0,
            "refine": "REPLACE",
            "content": {
              "boundingVolume": {
                "region": [
                  0.165669648,
                  0.856727045,
                  0.165764816,
                  0.856801015,
                  0.0,
                  14.7
                ]
              },
              "url": "15/34496/7447.b3dm"
            }
          },
          {
            "boundingVolume": {
              "region": [
                0.165668581,
                0.856920017,
                0.165765798,
                0.857015921,
                0.0,
                13.7
              ]
            },
            "geometricError": 0.0,
            "refine": "REPLACE",
            "content": {
              "boundingVolume": {
                "region": [
                  0.165668581,
                  0.856947099,
                  0.165740464,
                  0.857015921,
                  0.0,
                  13.7
                ]
              },
              "url": "15/34496/7445.b3dm"
            }
          },
          {
            "boundingVolume": {
              "region": [
                0.165669925,
                0.857015891,
                0.165765798,
                0.857111765,
                0.0,
                9.1
              ]
            },
            "geometricError": 0.0,
            "refine": "REPLACE",
            "content": {
              "boundingVolume": {
                "region": [
                  0.165699365,
                  0.857024308,
                  0.165714947,
                  0.857029279,
                  0.0,
                  9.1
                ]
              },
              "url": "15/34496/7444.b3dm"
            }
          },
          {
            "boundingVolume": {
              "region": [
                0.165764574,
                0.856727184,
                0.165861672,
                0.856824143,
                0.0,
                13.7
              ]
            },
            "geometricError": 0.0,
            "refine": "REPLACE",
            "content": {
              "boundingVolume": {
                "region": [
                  0.165764574,
                  0.856727184,
                  0.165820544,
                  0.856795535,
                  0.0,
                  13.7
                ]
              },
              "url": "15/34497/7447.b3dm"
            }
          },
          {
            "boundingVolume": {
              "region": [
                0.165765798,
                0.857015891,
                0.165861672,
                0.857111765,
                0.0,
                4.0
              ]
            },
            "geometricError": 0.0,
            "refine": "REPLACE",
            "content": {
              "boundingVolume": {
                "region": [
                  0.165801461,
                  0.857108081,
                  0.165803015,
                  0.857108965,
                  0.0,
                  4.0
                ]
              },
              "url": "15/34497/7444.b3dm"
            }
          },
          {
            "boundingVolume": {
              "region": [
                0.165861672,
                0.857015891,
                0.165957546,
                0.857111765,
                0.0,
                11.1
              ]
            },
            "geometricError": 0.0,
            "refine": "REPLACE",
            "content": {
              "boundingVolume": {
                "region": [
                  0.165866137,
                  0.857079678,
                  0.165917385,
                  0.857095808,
                  0.0,
                  11.1
                ]
              },
              "url": "15/34498/7444.b3dm"
            }
          },
          {
            "boundingVolume": {
              "region": [
                0.165957546,
                0.857015891,
                0.16605342,
                0.857111765,
                0.0,
                8.3
              ]
            },
            "geometricError": 0.0,
            "refine": "REPLACE",
            "content": {
              "boundingVolume": {
                "region": [
                  0.165983741,
                  0.857101244,
                  0.166027928,
                  0.857110923,
                  0.0,
                  8.3
                ]
              },
              "url": "15/34499/7444.b3dm"
            }
          }
        ]
      },
      {
        "boundingVolume": {
          "region": [
            0.165664894,
            0.857111765,
            0.16605342,
            0.85749526,
            0.0,
            26.1
          ]
        },
        "geometricError": 24.4140625,
        "refine": "ADD",
        "children": [
          {
            "boundingVolume": {
              "region": [
                0.165669366,
                0.857111765,
                0.165765798,
                0.857208809,
                0.0,
                11.0
              ]
            },
            "geometricError": 0.0,
            "refine": "REPLACE",
            "content": {
              "boundingVolume": {
                "region": [
                  0.165669366,
                  0.857132998,
                  0.165714621,
                  0.857208809,
                  0.0,
                  11.0
                ]
              },
              "url": "15/34496/7443.b3dm"
            }
          },
          {
            "boundingVolume": {
              "region": [
                0.165669271,
                0.857207082,
                0.165766376,
                0.857303512,
                0.0,
                13.6
              ]
            },
            "geometricError": 0.0,
            "refine": "REPLACE",
            "content": {
              "boundingVolume": {
                "region": [
                  0.165669271,
                  0.857207082,
                  0.165766376,
                  0.857300202,
                  0.0,
                  13.6
                ]
              },
              "url": "15/34496/7442.b3dm"
            }
          },
          {
            "boundingVolume": {
              "region": [
                0.165669925,
                0.857303512,
                0.165765798,
                0.857399386,
                0.0,
                11.0
              ]
            },
            "geometricError": 0.0,
            "refine": "REPLACE",
            "content": {
              "boundingVolume": {
                "region": [
                  0.165708664,
                  0.857365285,
                  0.165764858,
                  0.85738905,
                  0.0,
                  11.0
                ]
              },
              "url": "15/34496/7441.b3dm"
            }
          },
          {
            "boundingVolume": {
              "region": [
                0.165664894,
                0.857399386,
                0.165767044,
                0.85749526,
                0.0,
                12.6
              ]
            },
            "geometricError": 0.0,
            "refine": "REPLACE",
            "content": {
              "boundingVolume": {
                "region": [
                  0.165664894,
                  0.857408476,
                  0.165767044,
                  0.857490944,
                  0.0,
                  12.6
                ]
              },
              "url": "15/34496/7440.b3dm"
            }
          },
          {
            "boundingVolume": {
              "region": [
                0.165763843,
                0.857207639,
                0.165861825,
                0.857304722,
                0.0,
                12.7
              ]
            },
            "geometricError": 0.0,
            "refine": "REPLACE",
            "content": {
              "boundingVolume": {
                "region": [
                  0.165763843,
                  0.857225652,
                  0.165861825,
                  0.857304722,
                  0.0,
                  12.7
                ]
              },
              "url": "15/34497/7442.b3dm"
            }
          },
          {
            "boundingVolume": {
              "region": [
                0.165764769,
                0.85730283,
                0.165861672,
                0.857399386,
                0.0,
                12.7
              ]
            },
            "geometricError": 0.0,
            "refine": "REPLACE",
            "content": {
              "boundingVolume": {
                "region": [
                  0.165764769,
                  0.85730283,
                  0.165845736,
                  0.857388701,
                  0.0,
                  12.7
                ]
              },
              "url": "15/34497/7441.b3dm"
            }
          },
          {
            "boundingVolume": {
              "region": [
                0.16576455,
                0.857399386,
                0.165861672,
                0.85749526,
                0.0,
                12.7
              ]
            },
            "geometricError": 0.0,
            "refine": "REPLACE",
            "content": {
              "boundingVolume": {
                "region": [
                  0.16576455,
                  0.857406804,
                  0.165808365,
                  0.85745341,
                  0.0,
                  12.7
                ]
              },
              "url": "15/34497/7440.b3dm"
            }
          },
          {
            "boundingVolume": {
              "region": [
                0.165861672,
                0.857111765,
                0.165957546,
                0.857207639,
                0.0,
                11.9
              ]
            },
            "geometricError": 0.0,
            "refine": "REPLACE",
            "content": {
              "boundingVolume": {
                "region": [
                  0.165899945,
                  0.857114987,
                  0.165948754,
                  0.85714952,
                  0.0,
                  11.9
                ]
              },
              "url": "15/34498/7443.b3dm"
            }
          },
          {
            "boundingVolume": {
              "region": [
                0.165860125,
                0.857207639,
                0.165957546,
                0.857303512,
                0.0,
                12.2
              ]
            },
            "geometricError": 0.0,
            "refine": "REPLACE",
            "content": {
              "boundingVolume": {
                "region": [
                  0.165860125,
                  0.857243683,
                  0.165956628,
                  0.85728903,
                  0.0,
                  12.2
                ]
              },
              "url": "15/34498/7442.b3dm"
            }
          },
          {
            "boundingVolume": {
              "region": [
                0.165861672,
                0.857303512,
                0.165957546,
                0.857399386,
                0.0,
                6.0
              ]
            },
            "geometricError": 0.0,
            "refine": "REPLACE",
            "content": {
              "boundingVolume": {
                "region": [
                  0.165913733,
                  0.857317157,
                  0.165925267,
                  0.857392181,
                  0.0,
                  6.0
                ]
              },
              "url": "15/34498/7441.b3dm"
            }
          },
          {
            "boundingVolume": {
              "region": [
                0.165957546,
                0.857111765,
                0.16605342,
                0.857207639,
                0.0,
                10.4
              ]
            },
            "geometricError": 0.0,
            "refine": "REPLACE",
            "content": {
              "boundingVolume": {
                "region": [
                  0.165958116,
                  0.857113828,
                  0.166042822,
                  0.857153318,
                  0.0,
                  10.4
                ]
              },
              "url": "15/34499/7443.b3dm"
            }
          },
          {
            "boundingVolume": {
              "region": [
                0.165955311,
                0.857207639,
                0.16605342,
                0.857304459,
                0.0,
                26.1
              ]
            },
            "geometricError": 0.0,
            "refine": "REPLACE",
            "content": {
              "boundingVolume": {
                "region": [
                  0.165955311,
                  0.857243559,
                  0.16605244,
                  0.857304459,
                  0.0,
                  26.1
                ]
              },
              "url": "15/34499/7442.b3dm"
            }
          },
          {
            "boundingVolume": {
              "region": [
                0.165957546,
                0.857302307,
                0.16605342,
                0.857399386,
                0.0,
                25.5
              ]
            },
            "geometricError": 0.0,
            "refine": "REPLACE",
            "content": {
              "boundingVolume": {
                "region": [
                  0.165971917,
                  0.857302307,
                  0.166049727,
                  0.857314216,
                  0.0,
                  25.5
                ]
              },
              "url": "15/34499/7441.b3dm"
            }
          }
        ]
      },
      {
        "boundingVolume": {
          "region": [
            0.16605342,
            0.85672827,
            0.166245167,
            0.857111765,
            0.0,
            11.5
          ]
        },
        "geometricError": 24.4140625,
        "refine": "ADD",
        "children": [
          {
            "boundingVolume": {
              "region": [
                0.166149294,
                0.856920017,
                0.166245167,
                0.857015891,
                0.0,
                11.5
              ]
            },
            "geometricError": 0.0,
            "refine": "REPLACE",
            "content": {
              "boundingVolume": {
                "region": [
                  0.166154115,
                  0.857005283,
                  0.166167547,
                  0.857010989,
                  0.0,
                  11.5
                ]
              },
              "url": "15/34501/7445.b3dm"
            }
          }
        ]
      },
      {
        "boundingVolume": {
          "region": [
            0.166053305,
            0.857111765,
            0.166245167,
            0.85749526,
            0.0,
            13.9
          ]
        },
        "geometricError": 24.4140625,
        "refine": "ADD",
        "children": [
          {
            "boundingVolume": {
              "region": [
                0.166053305,
                0.857207639,
                0.166149784,
                0.857304715,
                0.0,
                12.2
              ]
            },
            "geometricError": 0.0,
            "refine": "REPLACE",
            "content": {
              "boundingVolume": {
                "region": [
                  0.166053305,
                  0.857276178,
                  0.166149784,
                  0.857304715,
                  0.0,
                  12.2
                ]
              },
              "url": "15/34500/7442.b3dm"
            }
          },
          {
            "boundingVolume": {
              "region": [
                0.16605342,
                0.857303512,
                0.166149294,
                0.857399386,
                0.0,
                12.7
              ]
            },
            "geometricError": 0.0,
            "refine": "REPLACE",
            "content": {
              "boundingVolume": {
                "region": [
                  0.166102479,
                  0.857303806,
                  0.166128956,
                  0.857312113,
                  0.0,
                  12.7
                ]
              },
              "url": "15/34500/7441.b3dm"
            }
          },
          {
            "boundingVolume": {
              "region": [
                0.16614836,
                0.857207639,
                0.166245167,
                0.857304569,
                0.0,
                12.3
              ]
            },
            "geometricError": 0.0,
            "refine": "REPLACE",
            "content": {
              "boundingVolume": {
                "region": [
                  0.16614836,
                  0.85727753,
                  0.166170297,
                  0.857304569,
                  0.0,
                  12.3
                ]
              },
              "url": "15/34501/7442.b3dm"
            }
          },
          {
            "boundingVolume": {
              "region": [
                0.166149294,
                0.857303311,
                0.166245167,
                0.857399386,
                0.0,
                13.9
              ]
            },
            "geometricError": 0.0,
            "refine": "REPLACE",
            "content": {
              "boundingVolume": {
                "region": [
                  0.166150054,
                  0.857303311,
                  0.1661693,
                  0.857306904,
                  0.0,
                  13.9
                ]
              },
              "url": "15/34501/7441.b3dm"
            }
          }
        ]
      }
    ]
  },
  "properties": {
    "DatenquelleDachhoehe": {
      "valueType": "STRING"
    },
    "CreationDate": {
      "valueType": "STRING"
    },
    "Modified": {
      "valueType": "STRING"
    },
    "Address": {
      "valueType": "SIMPLEADDRESS"
    },
    "CurrentUser": {
      "valueType": "STRING"
    },
    "DatenquelleBodenhoehe": {
      "valueType": "STRING"
    },
    "storeysAboveGround": {
      "valueType": "INTEGER",
      "minimum": 1.0,
      "maximum": 10.0
    },
    "externalReference externalObjectName": {
      "valueType": "STRING"
    },
    "LastDate": {
      "valueType": "STRING"
    },
    "Dachhoehe": {
      "valueType": "STRING"
    },
    "measuredHeight": {
      "valueType": "DOUBLE",
      "minimum": 0.0,
      "maximum": 29.353
    },
    "PrecedingUser": {
      "valueType": "STRING"
    },
    "function": {
      "valueType": "STRING"
    },
    "Gemeindeschluessel": {
      "valueType": "STRING"
    },
    "Gebaeudehoehe": {
      "valueType": "STRING"
    },
    "Comment": {
      "valueType": "STRING"
    },
    "PrecedingDate": {
      "valueType": "STRING"
    },
    "Dachform": {
      "valueType": "STRING"
    },
    "DatenquelleLage": {
      "valueType": "STRING"
    },
    "roofType": {
      "valueType": "STRING"
    },
    "creationDate": {
      "valueType": "STRING"
    },
    "gml:name": {
      "valueType": "STRING"
    },
    "Bodenhoehe": {
      "valueType": "STRING"
    },
    "ClassQuality": {
      "valueType": "STRING"
    },
    "CreationUser": {
      "valueType": "STRING"
    },
    "lockDate": {
      "valueType": "STRING"
    },
    "LastUser": {
      "valueType": "STRING"
    }
  }
}