{
	"asset" : {
		"version" : "0.0"
	},
	"properties" : {
		"gml_id" : {},
		"gml_parent_id" : {},
		"citygml_target_uri" : {},
		"citygml_feature_role" : {},
		"citygml_feature_role_attr_name" : {},
		"citygml_feature_role_attr_val" : {},
		"gml_description" : {},
		"gml_name" : {},
		"citygml_creationDate" : {},
		"citygml_terminationDate" : {},
		"externalReference{}.externalObject.name" : {},
		"externalReference{}.externalObject.uri" : {},
		"externalReference{}.informationSystem" : {},
		"citygml_generalizes_to{}.xlink_href" : {},
		"citygml_relative_to_terrain" : {},
		"citygml_relative_to_water" : {},
		"citygml_appearance{}.xlink_href" : {},
		"citygml_class" : {},
		"citygml_class_codeSpace" : {},
		"citygml_function{}" : {},
		"citygml_function{}.codeSpace" : {},
		"citygml_usage{}" : {},
		"citygml_usage{}.codeSpace" : {},
		"citygml_year_of_construction" : {},
		"citygml_year_of_demolition" : {},
		"citygml_roof_type" : {},
		"citygml_roof_type_codeSpace" : {},
		"citygml_measured_height" : {},
		"citygml_measured_height_units" : {},
		"citygml_storeys_above_ground" : {},
		"citygml_storeys_below_ground" : {},
		"citygml_storey_heights_above_ground" : {},
		"citygml_storey_heights_above_ground_units" : {},
		"citygml_storey_heights_below_ground" : {},
		"citygml_storey_heights_below_ground_units" : {},
		"citygml_outer_building_installation{}.xlink_href" : {},
		"citygml_interior_building_installation{}.xlink_href" : {},
		"citygml_bounded_by{}.xlink_href" : {},
		"citygml_level_of_detail{}" : {},
		"citygml_interior_room{}.xlink_href" : {},
		"citygml_consists_of_building_part{}.xlink_href" : {},
		"citygml_address{}.xlink_href" : {}
	},
	"geometricError" : 169.7960746404715,
	"root" : {
		"boundingVolume" : {
			"box" : [ -3107650.9736279254, 4086728.9365343973, 3771725.873700848, 1189.8211982576177, 0, 0, 0, 1205.63368278509, 0, 0, 0, 1122.5330373998731 ]
		},
		"geometricError" : 169.7960746404715,
		"refine" : "ADD",
		"content" : {
			"boundingVolume" : {
				"box" : [ -3107874.3824301586, 4086826.813991972, 3771587.5147515773, 619.907246528659, 0, 0, 0, 887.2048753593117, 0, 0, 0, 715.628444337286 ]
			},
			"url" : "data/data0.b3dm"
		},
		"children" : [
			{
				"boundingVolume" : {
					"box" : [ -3107622.2027068413, 4087177.766726462, 3771371.0422850754, 142.92419373709708, 0, 0, 0, 131.3704184135422, 0, 0, 0, 198.75418306747451 ]
				},
				"refine" : "ADD",
				"content" : {
					"boundingVolume" : {
						"box" : [ -3107622.2027068413, 4087177.766726462, 3771371.0422850754, 142.92419373709708, 0, 0, 0, 131.3704184135422, 0, 0, 0, 198.75418306747451 ]
					},
					"url" : "data/data1.b3dm"
				}
			},
			{
				"boundingVolume" : {
					"box" : [ -3107677.7908450235, 4087263.1852752166, 3771245.196941102, 128.17256252560765, 0, 0, 0, 137.13620114559308, 0, 0, 0, 161.17951790755615 ]
				},
				"refine" : "ADD",
				"content" : {
					"boundingVolume" : {
						"box" : [ -3107677.7908450235, 4087263.1852752166, 3771245.196941102, 128.17256252560765, 0, 0, 0, 137.13620114559308, 0, 0, 0, 161.17951790755615 ]
					},
					"url" : "data/data2.b3dm"
				}
			},
			{
				"boundingVolume" : {
					"box" : [ -3107699.5292576347, 4087160.825766434, 3771353.3864130913, 98.71302726957947, 0, 0, 0, 135.8878991571255, 0, 0, 0, 175.7837760047987 ]
				},
				"refine" : "ADD",
				"content" : {
					"boundingVolume" : {
						"box" : [ -3107699.5292576347, 4087160.825766434, 3771353.3864130913, 98.71302726957947, 0, 0, 0, 135.8878991571255, 0, 0, 0, 175.7837760047987 ]
					},
					"url" : "data/data3.b3dm"
				}
			},
			{
				"boundingVolume" : {
					"box" : [ -3107393.5870783795, 4086830.7420598296, 3771754.371593698, 675.0480991657823, 0, 0, 0, 704.9953684643842, 0, 0, 0, 943.8004091731273 ]
				},
				"geometricError" : 169.7960746404715,
				"refine" : "ADD",
				"content" : {
					"boundingVolume" : {
						"box" : [ -3107402.2349494454, 4086844.029116639, 3771754.371593698, 641.7566741863266, 0, 0, 0, 678.4212548448704, 0, 0, 0, 943.8004091731273 ]
					},
					"url" : "data/data4.b3dm"
				},
				"children" : [
					{
						"boundingVolume" : {
							"box" : [ -3107442.487311924, 4087048.7611531494, 3771659.1728460756, 97.0356561858207, 0, 0, 0, 117.70486215641722, 0, 0, 0, 173.53824886213988 ]
						},
						"refine" : "ADD",
						"content" : {
							"boundingVolume" : {
								"box" : [ -3107442.487311924, 4087048.7611531494, 3771659.1728460756, 97.0356561858207, 0, 0, 0, 117.70486215641722, 0, 0, 0, 173.53824886213988 ]
							},
							"url" : "data/data5.b3dm"
						}
					},
					{
						"boundingVolume" : {
							"box" : [ -3107633.6540018767, 4086777.873884852, 3771784.2939677825, 194.9142521712929, 0, 0, 0, 599.2590185096487, 0, 0, 0, 677.7892959988676 ]
						},
						"refine" : "ADD",
						"content" : {
							"boundingVolume" : {
								"box" : [ -3107633.6540018767, 4086777.873884852, 3771784.2939677825, 194.9142521712929, 0, 0, 0, 599.2590185096487, 0, 0, 0, 677.7892959988676 ]
							},
							"url" : "data/data6.b3dm"
						}
					},
					{
						"boundingVolume" : {
							"box" : [ -3107400.328343963, 4086892.76345026, 3771815.7169360127, 293.3479256182909, 0, 0, 0, 76.40038316138089, 0, 0, 0, 262.37659805547446 ]
						},
						"refine" : "ADD",
						"content" : {
							"boundingVolume" : {
								"box" : [ -3107400.328343963, 4086892.76345026, 3771815.7169360127, 293.3479256182909, 0, 0, 0, 76.40038316138089, 0, 0, 0, 262.37659805547446 ]
							},
							"url" : "data/data7.b3dm"
						}
					},
					{
						"boundingVolume" : {
							"box" : [ -3107357.689729324, 4086833.895873558, 3771964.3057382237, 209.3593600699678, 0, 0, 0, 212.14919113833457, 0, 0, 0, 329.37596690794453 ]
						},
						"refine" : "ADD",
						"content" : {
							"boundingVolume" : {
								"box" : [ -3107357.689729324, 4086833.895873558, 3771964.3057382237, 209.3593600699678, 0, 0, 0, 212.14919113833457, 0, 0, 0, 329.37596690794453 ]
							},
							"url" : "data/data8.b3dm"
						}
					},
					{
						"boundingVolume" : {
							"box" : [ -3107346.220034436, 4086947.018137173, 3771838.223539434, 108.56848904304206, 0, 0, 0, 25.372581197414547, 0, 0, 0, 110.66502071823925 ]
						},
						"refine" : "ADD",
						"content" : {
							"boundingVolume" : {
								"box" : [ -3107346.220034436, 4086947.018137173, 3771838.223539434, 108.56848904304206, 0, 0, 0, 25.372581197414547, 0, 0, 0, 110.66502071823925 ]
							},
							"url" : "data/data9.b3dm"
						}
					},
					{
						"boundingVolume" : {
							"box" : [ -3107564.990967706, 4087087.8007455273, 3771546.1000283193, 223.46891610743478, 0, 0, 0, 174.25367667153478, 0, 0, 0, 223.88914186460897 ]
						},
						"refine" : "ADD",
						"content" : {
							"boundingVolume" : {
								"box" : [ -3107564.990967706, 4087087.8007455273, 3771546.1000283193, 223.46891610743478, 0, 0, 0, 174.25367667153478, 0, 0, 0, 223.88914186460897 ]
							},
							"url" : "data/data10.b3dm"
						}
					},
					{
						"boundingVolume" : {
							"box" : [ -3107490.846176258, 4086936.672028549, 3771742.307412756, 220.96162415388972, 0, 0, 0, 201.88815086428076, 0, 0, 0, 293.1492059538141 ]
						},
						"refine" : "ADD",
						"content" : {
							"boundingVolume" : {
								"box" : [ -3107490.846176258, 4086936.672028549, 3771742.307412756, 220.96162415388972, 0, 0, 0, 201.88815086428076, 0, 0, 0, 293.1492059538141 ]
							},
							"url" : "data/data11.b3dm"
						}
					},
					{
						"boundingVolume" : {
							"box" : [ -3107217.524385228, 4086952.855755363, 3771926.6939498177, 52.75768017070368, 0, 0, 0, 95.50900962390006, 0, 0, 0, 126.48766671633348 ]
						},
						"refine" : "ADD",
						"content" : {
							"boundingVolume" : {
								"box" : [ -3107217.524385228, 4086952.855755363, 3771926.6939498177, 52.75768017070368, 0, 0, 0, 95.50900962390006, 0, 0, 0, 126.48766671633348 ]
							},
							"url" : "data/data12.b3dm"
						}
					},
					{
						"boundingVolume" : {
							"box" : [ -3107219.491638477, 4087093.932964609, 3771803.72681579, 326.85721936123446, 0, 0, 0, 93.43112151650712, 0, 0, 0, 218.0016821087338 ]
						},
						"refine" : "ADD",
						"content" : {
							"boundingVolume" : {
								"box" : [ -3107219.491638477, 4087093.932964609, 3771803.72681579, 326.85721936123446, 0, 0, 0, 93.43112151650712, 0, 0, 0, 218.0016821087338 ]
							},
							"url" : "data/data13.b3dm"
						}
					},
					{
						"boundingVolume" : {
							"box" : [ -3107338.8330836175, 4087032.0837203683, 3771762.737791853, 169.54426409490407, 0, 0, 0, 67.59590495564044, 0, 0, 0, 174.49578970624134 ]
						},
						"refine" : "ADD",
						"content" : {
							"boundingVolume" : {
								"box" : [ -3107338.8330836175, 4087032.0837203683, 3771762.737791853, 169.54426409490407, 0, 0, 0, 67.59590495564044, 0, 0, 0, 174.49578970624134 ]
							},
							"url" : "data/data14.b3dm"
						}
					}
				]
			},
			{
				"boundingVolume" : {
					"box" : [ -3107656.082502151, 4086814.846106273, 3771703.4757013866, 81.4658672483638, 0, 0, 0, 761.0751073644497, 0, 0, 0, 862.1998449796811 ]
				},
				"refine" : "ADD",
				"content" : {
					"boundingVolume" : {
						"box" : [ -3107656.082502151, 4086814.846106273, 3771703.4757013866, 81.4658672483638, 0, 0, 0, 761.0751073644497, 0, 0, 0, 862.1998449796811 ]
					},
					"url" : "data/data15.b3dm"
				}
			},
			{
				"boundingVolume" : {
					"box" : [ -3107705.7592944996, 4086903.949097197, 3771573.1156397793, 15.82416318776086, 0, 0, 0, 720.0120600610971, 0, 0, 0, 758.2460896968842 ]
				},
				"refine" : "ADD",
				"content" : {
					"boundingVolume" : {
						"box" : [ -3107705.7592944996, 4086903.949097197, 3771573.1156397793, 15.82416318776086, 0, 0, 0, 720.0120600610971, 0, 0, 0, 758.2460896968842 ]
					},
					"url" : "data/data16.b3dm"
				}
			},
			{
				"boundingVolume" : {
					"box" : [ -3107979.8891541185, 4086662.4156882586, 3771748.736653005, 531.9901458709501, 0, 0, 0, 1072.5919905076735, 0, 0, 0, 1076.8071330860257 ]
				},
				"geometricError" : 169.43901043431833,
				"refine" : "ADD",
				"content" : {
					"boundingVolume" : {
						"box" : [ -3107984.5336036915, 4086662.4156882586, 3771748.736653005, 522.7012467253953, 0, 0, 0, 1072.5919905076735, 0, 0, 0, 1076.8071330860257 ]
					},
					"url" : "data/data17.b3dm"
				},
				"children" : [
					{
						"boundingVolume" : {
							"box" : [ -3107851.214034014, 4086937.0968161337, 3771405.508845558, 116.83574194088578, 0, 0, 0, 66.21703336527571, 0, 0, 0, 98.04368134960532 ]
						},
						"refine" : "ADD",
						"content" : {
							"boundingVolume" : {
								"box" : [ -3107851.214034014, 4086937.0968161337, 3771405.508845558, 116.83574194088578, 0, 0, 0, 66.21703336527571, 0, 0, 0, 98.04368134960532 ]
							},
							"url" : "data/data18.b3dm"
						}
					},
					{
						"boundingVolume" : {
							"box" : [ -3107761.047688434, 4086775.2339838957, 3771678.362896632, 86.77870044577867, 0, 0, 0, 508.4321984015405, 0, 0, 0, 549.5794298211113 ]
						},
						"refine" : "ADD",
						"content" : {
							"boundingVolume" : {
								"box" : [ -3107761.047688434, 4086775.2339838957, 3771678.362896632, 86.77870044577867, 0, 0, 0, 508.4321984015405, 0, 0, 0, 549.5794298211113 ]
							},
							"url" : "data/data19.b3dm"
						}
					},
					{
						"boundingVolume" : {
							"box" : [ -3107752.356516143, 4087062.1165285828, 3771373.53280391, 50.64901514071971, 0, 0, 0, 55.373881162144244, 0, 0, 0, 22.991460043471307 ]
						},
						"refine" : "ADD",
						"content" : {
							"boundingVolume" : {
								"box" : [ -3107752.356516143, 4087062.1165285828, 3771373.53280391, 50.64901514071971, 0, 0, 0, 55.373881162144244, 0, 0, 0, 22.991460043471307 ]
							},
							"url" : "data/data20.b3dm"
						}
					},
					{
						"boundingVolume" : {
							"box" : [ -3107804.933199427, 4086872.6076519284, 3771552.5537773296, 182.07823648722842, 0, 0, 0, 95.66914545791224, 0, 0, 0, 144.1068682326004 ]
						},
						"refine" : "ADD",
						"content" : {
							"boundingVolume" : {
								"box" : [ -3107804.933199427, 4086872.6076519284, 3771552.5537773296, 182.07823648722842, 0, 0, 0, 95.66914545791224, 0, 0, 0, 144.1068682326004 ]
							},
							"url" : "data/data21.b3dm"
						}
					},
					{
						"boundingVolume" : {
							"box" : [ -3107937.0946522746, 4086985.00724962, 3771334.4243075484, 120.81014154711738, 0, 0, 0, 114.4609089246951, 0, 0, 0, 114.81496105948463 ]
						},
						"refine" : "ADD",
						"content" : {
							"boundingVolume" : {
								"box" : [ -3107937.0946522746, 4086985.00724962, 3771334.4243075484, 120.81014154711738, 0, 0, 0, 114.4609089246951, 0, 0, 0, 114.81496105948463 ]
							},
							"url" : "data/data22.b3dm"
						}
					},
					{
						"boundingVolume" : {
							"box" : [ -3108029.1360311303, 4086836.951234254, 3771382.003542185, 7.570125573780388, 0, 0, 0, 5.823692919220775, 0, 0, 0, 7.067993698641658 ]
						},
						"refine" : "ADD",
						"content" : {
							"boundingVolume" : {
								"box" : [ -3108029.1360311303, 4086836.951234254, 3771382.003542185, 7.570125573780388, 0, 0, 0, 5.823692919220775, 0, 0, 0, 7.067993698641658 ]
							},
							"url" : "data/data23.b3dm"
						}
					},
					{
						"boundingVolume" : {
							"box" : [ -3107952.4717579195, 4086817.997511075, 3771483.227825688, 79.027734501753, 0, 0, 0, 76.96119330031797, 0, 0, 0, 101.64067567838356 ]
						},
						"refine" : "ADD",
						"content" : {
							"boundingVolume" : {
								"box" : [ -3107952.4717579195, 4086817.997511075, 3771483.227825688, 79.027734501753, 0, 0, 0, 76.96119330031797, 0, 0, 0, 101.64067567838356 ]
							},
							"url" : "data/data24.b3dm"
						}
					},
					{
						"boundingVolume" : {
							"box" : [ -3107958.6789642423, 4086395.1125837974, 3771906.6580990045, 325.5393308578059, 0, 0, 0, 119.61994294542819, 0, 0, 0, 284.2570971567184 ]
						},
						"refine" : "ADD",
						"content" : {
							"boundingVolume" : {
								"box" : [ -3107958.6789642423, 4086395.1125837974, 3771906.6580990045, 325.5393308578059, 0, 0, 0, 119.61994294542819, 0, 0, 0, 284.2570971567184 ]
							},
							"url" : "data/data25.b3dm"
						}
					},
					{
						"boundingVolume" : {
							"box" : [ -3107806.591109132, 4087054.401600506, 3771349.1180526363, 182.13490062765777, 0, 0, 0, 130.62787851132452, 0, 0, 0, 163.87827152526006 ]
						},
						"refine" : "ADD",
						"content" : {
							"boundingVolume" : {
								"box" : [ -3107806.591109132, 4087054.401600506, 3771349.1180526363, 182.13490062765777, 0, 0, 0, 130.62787851132452, 0, 0, 0, 163.87827152526006 ]
							},
							"url" : "data/data26.b3dm"
						}
					},
					{
						"boundingVolume" : {
							"box" : [ -3108016.1769514238, 4086865.378819016, 3771407.1574734403, 137.48146573081613, 0, 0, 0, 161.89534403989092, 0, 0, 0, 176.20535069471225 ]
						},
						"refine" : "ADD",
						"content" : {
							"boundingVolume" : {
								"box" : [ -3108016.1769514238, 4086865.378819016, 3771407.1574734403, 137.48146573081613, 0, 0, 0, 161.89534403989092, 0, 0, 0, 176.20535069471225 ]
							},
							"url" : "data/data27.b3dm"
						}
					}
				]
			},
			{
				"boundingVolume" : {
					"box" : [ -3107730.672851386, 4086780.775167714, 3771699.8669798616, 118.76932434923947, 0, 0, 0, 793.7247154260986, 0, 0, 0, 872.9208411602303 ]
				},
				"refine" : "ADD",
				"content" : {
					"boundingVolume" : {
						"box" : [ -3107730.672851386, 4086780.775167714, 3771699.8669798616, 118.76932434923947, 0, 0, 0, 793.7247154260986, 0, 0, 0, 872.9208411602303 ]
					},
					"url" : "data/data28.b3dm"
				}
			},
			{
				"boundingVolume" : {
					"box" : [ -3107751.4572305763, 4087238.6997438064, 3771213.5519228512, 69.15027652774006, 0, 0, 0, 79.85290557844564, 0, 0, 0, 55.77774231135845 ]
				},
				"refine" : "ADD",
				"content" : {
					"boundingVolume" : {
						"box" : [ -3107751.4572305763, 4087238.6997438064, 3771213.5519228512, 69.15027652774006, 0, 0, 0, 79.85290557844564, 0, 0, 0, 55.77774231135845 ]
					},
					"url" : "data/data29.b3dm"
				}
			},
			{
				"boundingVolume" : {
					"box" : [ -3107716.4381665993, 4087229.902375591, 3771219.785976731, 31.958146773278713, 0, 0, 0, 21.98002348234877, 0, 0, 0, 26.596731362398714 ]
				},
				"refine" : "ADD",
				"content" : {
					"boundingVolume" : {
						"box" : [ -3107716.4381665993, 4087229.902375591, 3771219.785976731, 31.958146773278713, 0, 0, 0, 21.98002348234877, 0, 0, 0, 26.596731362398714 ]
					},
					"url" : "data/data30.b3dm"
				}
			}
		]
	}
}