{
	"asset" : {
		"version" : "0.0"
	},
	"properties" : {
		"gml_id" : {},
		"gml_parent_id" : {},
		"citygml_target_uri" : {},
		"citygml_feature_role" : {},
		"citygml_feature_role_attr_name" : {},
		"citygml_feature_role_attr_val" : {},
		"gml_description" : {},
		"gml_name" : {},
		"citygml_creationDate" : {},
		"citygml_terminationDate" : {},
		"externalReference{}.externalObject.name" : {},
		"externalReference{}.externalObject.uri" : {},
		"externalReference{}.informationSystem" : {},
		"citygml_generalizes_to{}.xlink_href" : {},
		"citygml_relative_to_terrain" : {},
		"citygml_relative_to_water" : {},
		"citygml_appearance{}.xlink_href" : {},
		"citygml_level_of_detail{}" : {},
		"citygml_opening{}.xlink_href" : {}
	},
	"geometricError" : 13.047772424877621,
	"root" : {
		"boundingVolume" : {
			"box" : [ 4138716.9036290487, 612813.7263106848, 4798164.538954534, 9.295648283790797, 0, 0, 0, 13.047772424877621, 0, 0, 0, 6.609268351458013 ]
		},
		"refine" : "ADD",
		"content" : {
			"boundingVolume" : {
				"box" : [ 4138716.9036290487, 612813.7263106848, 4798164.538954534, 9.295648283790797, 0, 0, 0, 13.047772424877621, 0, 0, 0, 6.609268351458013 ]
			},
			"url" : "data/data0.b3dm"
		}
	}
}