{
	"asset" : {
		"version" : "0.0"
	},
	"properties" : {
		"gml_id" : {},
		"citygml_target_uri" : {},
		"gml_description" : {},
		"gml_name" : {},
		"citygml_city_object_member{}.xlink_href" : {},
		"citygml_appearance_member{}.xlink_href" : {},
		"gml_feature_member{}.xlink_href" : {}
	},
	"geometricError" : 13.808688693796284,
	"root" : {
		"boundingVolume" : {
			"box" : [ 4138718.210698438, 612814.0468162922, 4798165.96712963, 11.909787061624229, 0, 0, 0, 14.154810303705744, 0, 0, 0, 9.465618543326855 ]
		},
		"refine" : "ADD",
		"content" : {
			"boundingVolume" : {
				"box" : [ 4138718.210698438, 612814.0468162922, 4798165.96712963, 11.909787061624229, 0, 0, 0, 14.154810303705744, 0, 0, 0, 9.465618543326855 ]
			},
			"url" : "data/data0.b3dm"
		}
	}
}